%TF.GenerationSoftware,KiCad,Pcbnew,5.99.0-unknown-9f03a259f9~131~ubuntu20.04.1*%
%TF.CreationDate,2021-09-19T23:14:04+02:00*%
%TF.ProjectId,dero-board,6465726f-2d62-46f6-9172-642e6b696361,1.0*%
%TF.SameCoordinates,Original*%
%TF.FileFunction,Legend,Top*%
%TF.FilePolarity,Positive*%
%FSLAX46Y46*%
G04 Gerber Fmt 4.6, Leading zero omitted, Abs format (unit mm)*
G04 Created by KiCad (PCBNEW 5.99.0-unknown-9f03a259f9~131~ubuntu20.04.1) date 2021-09-19 23:14:04*
%MOMM*%
%LPD*%
G01*
G04 APERTURE LIST*
G04 Aperture macros list*
%AMRoundRect*
0 Rectangle with rounded corners*
0 $1 Rounding radius*
0 $2 $3 $4 $5 $6 $7 $8 $9 X,Y pos of 4 corners*
0 Add a 4 corners polygon primitive as box body*
4,1,4,$2,$3,$4,$5,$6,$7,$8,$9,$2,$3,0*
0 Add four circle primitives for the rounded corners*
1,1,$1+$1,$2,$3*
1,1,$1+$1,$4,$5*
1,1,$1+$1,$6,$7*
1,1,$1+$1,$8,$9*
0 Add four rect primitives between the rounded corners*
20,1,$1+$1,$2,$3,$4,$5,0*
20,1,$1+$1,$4,$5,$6,$7,0*
20,1,$1+$1,$6,$7,$8,$9,0*
20,1,$1+$1,$8,$9,$2,$3,0*%
G04 Aperture macros list end*
%ADD10C,0.150000*%
%ADD11C,0.100000*%
%ADD12C,0.120000*%
%ADD13C,0.010000*%
%ADD14RoundRect,0.400000X0.550000X0.400000X-0.550000X0.400000X-0.550000X-0.400000X0.550000X-0.400000X0*%
%ADD15RoundRect,0.250000X0.325000X0.450000X-0.325000X0.450000X-0.325000X-0.450000X0.325000X-0.450000X0*%
%ADD16C,1.700000*%
%ADD17O,1.700000X1.700000*%
%ADD18R,0.600000X1.500000*%
G04 APERTURE END LIST*
D10*
X107500000Y-75070000D02*
X107250000Y-74820000D01*
X107250000Y-74820000D02*
X107750000Y-74820000D01*
X107750000Y-74820000D02*
X107500000Y-75070000D01*
G36*
X107500000Y-75070000D02*
G01*
X107250000Y-74820000D01*
X107750000Y-74820000D01*
X107500000Y-75070000D01*
G37*
X107500000Y-75070000D02*
X107250000Y-74820000D01*
X107750000Y-74820000D01*
X107500000Y-75070000D01*
X110250000Y-75070000D02*
X109750000Y-75070000D01*
X109750000Y-75070000D02*
X110000000Y-74820000D01*
X110000000Y-74820000D02*
X110250000Y-75070000D01*
G36*
X110250000Y-75070000D02*
G01*
X109750000Y-75070000D01*
X110000000Y-74820000D01*
X110250000Y-75070000D01*
G37*
X110250000Y-75070000D02*
X109750000Y-75070000D01*
X110000000Y-74820000D01*
X110250000Y-75070000D01*
X101926735Y-56768928D02*
X101126735Y-56768928D01*
X101126735Y-56464166D01*
X101164831Y-56387976D01*
X101202926Y-56349880D01*
X101279116Y-56311785D01*
X101393402Y-56311785D01*
X101469592Y-56349880D01*
X101507688Y-56387976D01*
X101545783Y-56464166D01*
X101545783Y-56768928D01*
X101850545Y-55511785D02*
X101888640Y-55549880D01*
X101926735Y-55664166D01*
X101926735Y-55740357D01*
X101888640Y-55854642D01*
X101812450Y-55930833D01*
X101736259Y-55968928D01*
X101583878Y-56007023D01*
X101469592Y-56007023D01*
X101317211Y-55968928D01*
X101241021Y-55930833D01*
X101164831Y-55854642D01*
X101126735Y-55740357D01*
X101126735Y-55664166D01*
X101164831Y-55549880D01*
X101202926Y-55511785D01*
X101126735Y-54787976D02*
X101126735Y-55168928D01*
X101507688Y-55207023D01*
X101469592Y-55168928D01*
X101431497Y-55092738D01*
X101431497Y-54902261D01*
X101469592Y-54826071D01*
X101507688Y-54787976D01*
X101583878Y-54749880D01*
X101774354Y-54749880D01*
X101850545Y-54787976D01*
X101888640Y-54826071D01*
X101926735Y-54902261D01*
X101926735Y-55092738D01*
X101888640Y-55168928D01*
X101850545Y-55207023D01*
X111360000Y-74292976D02*
X111321904Y-74369166D01*
X111321904Y-74483452D01*
X111360000Y-74597738D01*
X111436190Y-74673928D01*
X111512380Y-74712023D01*
X111664761Y-74750119D01*
X111779047Y-74750119D01*
X111931428Y-74712023D01*
X112007619Y-74673928D01*
X112083809Y-74597738D01*
X112121904Y-74483452D01*
X112121904Y-74407261D01*
X112083809Y-74292976D01*
X112045714Y-74254880D01*
X111779047Y-74254880D01*
X111779047Y-74407261D01*
X112121904Y-73912023D02*
X111321904Y-73912023D01*
X112121904Y-73454880D01*
X111321904Y-73454880D01*
X112121904Y-73073928D02*
X111321904Y-73073928D01*
X111321904Y-72883452D01*
X111360000Y-72769166D01*
X111436190Y-72692976D01*
X111512380Y-72654880D01*
X111664761Y-72616785D01*
X111779047Y-72616785D01*
X111931428Y-72654880D01*
X112007619Y-72692976D01*
X112083809Y-72769166D01*
X112121904Y-72883452D01*
X112121904Y-73073928D01*
X108850000Y-61870071D02*
X108811904Y-61946261D01*
X108811904Y-62060547D01*
X108850000Y-62174833D01*
X108926190Y-62251023D01*
X109002380Y-62289119D01*
X109154761Y-62327214D01*
X109269047Y-62327214D01*
X109421428Y-62289119D01*
X109497619Y-62251023D01*
X109573809Y-62174833D01*
X109611904Y-62060547D01*
X109611904Y-61984357D01*
X109573809Y-61870071D01*
X109535714Y-61831976D01*
X109269047Y-61831976D01*
X109269047Y-61984357D01*
X109611904Y-61489119D02*
X108811904Y-61489119D01*
X109611904Y-61031976D01*
X108811904Y-61031976D01*
X109611904Y-60651023D02*
X108811904Y-60651023D01*
X108811904Y-60460547D01*
X108850000Y-60346261D01*
X108926190Y-60270071D01*
X109002380Y-60231976D01*
X109154761Y-60193880D01*
X109269047Y-60193880D01*
X109421428Y-60231976D01*
X109497619Y-60270071D01*
X109573809Y-60346261D01*
X109611904Y-60460547D01*
X109611904Y-60651023D01*
X111321904Y-69422309D02*
X112121904Y-69155642D01*
X111321904Y-68888976D01*
X112121904Y-68622309D02*
X111321904Y-68622309D01*
X112121904Y-68241357D02*
X111321904Y-68241357D01*
X112121904Y-67784214D01*
X111321904Y-67784214D01*
X96881904Y-56768928D02*
X96081904Y-56768928D01*
X96081904Y-56464166D01*
X96120000Y-56387976D01*
X96158095Y-56349880D01*
X96234285Y-56311785D01*
X96348571Y-56311785D01*
X96424761Y-56349880D01*
X96462857Y-56387976D01*
X96500952Y-56464166D01*
X96500952Y-56768928D01*
X96805714Y-55511785D02*
X96843809Y-55549880D01*
X96881904Y-55664166D01*
X96881904Y-55740357D01*
X96843809Y-55854642D01*
X96767619Y-55930833D01*
X96691428Y-55968928D01*
X96539047Y-56007023D01*
X96424761Y-56007023D01*
X96272380Y-55968928D01*
X96196190Y-55930833D01*
X96120000Y-55854642D01*
X96081904Y-55740357D01*
X96081904Y-55664166D01*
X96120000Y-55549880D01*
X96158095Y-55511785D01*
X96081904Y-55245119D02*
X96081904Y-54711785D01*
X96881904Y-55054642D01*
X109581904Y-56768928D02*
X108781904Y-56768928D01*
X108781904Y-56464166D01*
X108820000Y-56387976D01*
X108858095Y-56349880D01*
X108934285Y-56311785D01*
X109048571Y-56311785D01*
X109124761Y-56349880D01*
X109162857Y-56387976D01*
X109200952Y-56464166D01*
X109200952Y-56768928D01*
X109162857Y-55702261D02*
X109200952Y-55587976D01*
X109239047Y-55549880D01*
X109315238Y-55511785D01*
X109429523Y-55511785D01*
X109505714Y-55549880D01*
X109543809Y-55587976D01*
X109581904Y-55664166D01*
X109581904Y-55968928D01*
X108781904Y-55968928D01*
X108781904Y-55702261D01*
X108820000Y-55626071D01*
X108858095Y-55587976D01*
X108934285Y-55549880D01*
X109010476Y-55549880D01*
X109086666Y-55587976D01*
X109124761Y-55626071D01*
X109162857Y-55702261D01*
X109162857Y-55968928D01*
X109048571Y-54826071D02*
X109581904Y-54826071D01*
X108743809Y-55016547D02*
X109315238Y-55207023D01*
X109315238Y-54711785D01*
X94341904Y-56768928D02*
X93541904Y-56768928D01*
X93541904Y-56464166D01*
X93580000Y-56387976D01*
X93618095Y-56349880D01*
X93694285Y-56311785D01*
X93808571Y-56311785D01*
X93884761Y-56349880D01*
X93922857Y-56387976D01*
X93960952Y-56464166D01*
X93960952Y-56768928D01*
X94341904Y-55968928D02*
X93541904Y-55968928D01*
X93541904Y-55778452D01*
X93580000Y-55664166D01*
X93656190Y-55587976D01*
X93732380Y-55549880D01*
X93884761Y-55511785D01*
X93999047Y-55511785D01*
X94151428Y-55549880D01*
X94227619Y-55587976D01*
X94303809Y-55664166D01*
X94341904Y-55778452D01*
X94341904Y-55968928D01*
X94341904Y-54749880D02*
X94341904Y-55207023D01*
X94341904Y-54978452D02*
X93541904Y-54978452D01*
X93656190Y-55054642D01*
X93732380Y-55130833D01*
X93770476Y-55207023D01*
X111096000Y-62212928D02*
X111096000Y-61412928D01*
X112121904Y-61565309D02*
X111740952Y-61831976D01*
X112121904Y-62022452D02*
X111321904Y-62022452D01*
X111321904Y-61717690D01*
X111360000Y-61641500D01*
X111398095Y-61603404D01*
X111474285Y-61565309D01*
X111588571Y-61565309D01*
X111664761Y-61603404D01*
X111702857Y-61641500D01*
X111740952Y-61717690D01*
X111740952Y-62022452D01*
X111096000Y-61412928D02*
X111096000Y-60651023D01*
X112083809Y-61260547D02*
X112121904Y-61146261D01*
X112121904Y-60955785D01*
X112083809Y-60879595D01*
X112045714Y-60841500D01*
X111969523Y-60803404D01*
X111893333Y-60803404D01*
X111817142Y-60841500D01*
X111779047Y-60879595D01*
X111740952Y-60955785D01*
X111702857Y-61108166D01*
X111664761Y-61184357D01*
X111626666Y-61222452D01*
X111550476Y-61260547D01*
X111474285Y-61260547D01*
X111398095Y-61222452D01*
X111360000Y-61184357D01*
X111321904Y-61108166D01*
X111321904Y-60917690D01*
X111360000Y-60803404D01*
X111096000Y-60651023D02*
X111096000Y-60041500D01*
X111321904Y-60574833D02*
X111321904Y-60117690D01*
X112121904Y-60346261D02*
X111321904Y-60346261D01*
X112121904Y-56768928D02*
X111321904Y-56768928D01*
X111321904Y-56464166D01*
X111360000Y-56387976D01*
X111398095Y-56349880D01*
X111474285Y-56311785D01*
X111588571Y-56311785D01*
X111664761Y-56349880D01*
X111702857Y-56387976D01*
X111740952Y-56464166D01*
X111740952Y-56768928D01*
X111702857Y-55702261D02*
X111740952Y-55587976D01*
X111779047Y-55549880D01*
X111855238Y-55511785D01*
X111969523Y-55511785D01*
X112045714Y-55549880D01*
X112083809Y-55587976D01*
X112121904Y-55664166D01*
X112121904Y-55968928D01*
X111321904Y-55968928D01*
X111321904Y-55702261D01*
X111360000Y-55626071D01*
X111398095Y-55587976D01*
X111474285Y-55549880D01*
X111550476Y-55549880D01*
X111626666Y-55587976D01*
X111664761Y-55626071D01*
X111702857Y-55702261D01*
X111702857Y-55968928D01*
X111321904Y-54787976D02*
X111321904Y-55168928D01*
X111702857Y-55207023D01*
X111664761Y-55168928D01*
X111626666Y-55092738D01*
X111626666Y-54902261D01*
X111664761Y-54826071D01*
X111702857Y-54787976D01*
X111779047Y-54749880D01*
X111969523Y-54749880D01*
X112045714Y-54787976D01*
X112083809Y-54826071D01*
X112121904Y-54902261D01*
X112121904Y-55092738D01*
X112083809Y-55168928D01*
X112045714Y-55207023D01*
X99421904Y-56768928D02*
X98621904Y-56768928D01*
X98621904Y-56464166D01*
X98660000Y-56387976D01*
X98698095Y-56349880D01*
X98774285Y-56311785D01*
X98888571Y-56311785D01*
X98964761Y-56349880D01*
X99002857Y-56387976D01*
X99040952Y-56464166D01*
X99040952Y-56768928D01*
X99345714Y-55511785D02*
X99383809Y-55549880D01*
X99421904Y-55664166D01*
X99421904Y-55740357D01*
X99383809Y-55854642D01*
X99307619Y-55930833D01*
X99231428Y-55968928D01*
X99079047Y-56007023D01*
X98964761Y-56007023D01*
X98812380Y-55968928D01*
X98736190Y-55930833D01*
X98660000Y-55854642D01*
X98621904Y-55740357D01*
X98621904Y-55664166D01*
X98660000Y-55549880D01*
X98698095Y-55511785D01*
X98621904Y-54826071D02*
X98621904Y-54978452D01*
X98660000Y-55054642D01*
X98698095Y-55092738D01*
X98812380Y-55168928D01*
X98964761Y-55207023D01*
X99269523Y-55207023D01*
X99345714Y-55168928D01*
X99383809Y-55130833D01*
X99421904Y-55054642D01*
X99421904Y-54902261D01*
X99383809Y-54826071D01*
X99345714Y-54787976D01*
X99269523Y-54749880D01*
X99079047Y-54749880D01*
X99002857Y-54787976D01*
X98964761Y-54826071D01*
X98926666Y-54902261D01*
X98926666Y-55054642D01*
X98964761Y-55130833D01*
X99002857Y-55168928D01*
X99079047Y-55207023D01*
X91801904Y-74712023D02*
X91001904Y-74712023D01*
X91001904Y-74407261D01*
X91040000Y-74331071D01*
X91078095Y-74292976D01*
X91154285Y-74254880D01*
X91268571Y-74254880D01*
X91344761Y-74292976D01*
X91382857Y-74331071D01*
X91420952Y-74407261D01*
X91420952Y-74712023D01*
X91801904Y-73912023D02*
X91001904Y-73912023D01*
X91001904Y-73721547D01*
X91040000Y-73607261D01*
X91116190Y-73531071D01*
X91192380Y-73492976D01*
X91344761Y-73454880D01*
X91459047Y-73454880D01*
X91611428Y-73492976D01*
X91687619Y-73531071D01*
X91763809Y-73607261D01*
X91801904Y-73721547D01*
X91801904Y-73912023D01*
X91001904Y-72731071D02*
X91001904Y-73112023D01*
X91382857Y-73150119D01*
X91344761Y-73112023D01*
X91306666Y-73035833D01*
X91306666Y-72845357D01*
X91344761Y-72769166D01*
X91382857Y-72731071D01*
X91459047Y-72692976D01*
X91649523Y-72692976D01*
X91725714Y-72731071D01*
X91763809Y-72769166D01*
X91801904Y-72845357D01*
X91801904Y-73035833D01*
X91763809Y-73112023D01*
X91725714Y-73150119D01*
X104494037Y-74712023D02*
X103694037Y-74712023D01*
X103694037Y-74407261D01*
X103732133Y-74331071D01*
X103770228Y-74292976D01*
X103846418Y-74254880D01*
X103960704Y-74254880D01*
X104036894Y-74292976D01*
X104074990Y-74331071D01*
X104113085Y-74407261D01*
X104113085Y-74712023D01*
X104265466Y-73950119D02*
X104265466Y-73569166D01*
X104494037Y-74026309D02*
X103694037Y-73759642D01*
X104494037Y-73492976D01*
X103694037Y-73302500D02*
X103694037Y-72807261D01*
X103998799Y-73073928D01*
X103998799Y-72959642D01*
X104036894Y-72883452D01*
X104074990Y-72845357D01*
X104151180Y-72807261D01*
X104341656Y-72807261D01*
X104417847Y-72845357D01*
X104455942Y-72883452D01*
X104494037Y-72959642D01*
X104494037Y-73188214D01*
X104455942Y-73264404D01*
X104417847Y-73302500D01*
X106241904Y-69384214D02*
X106241904Y-68888976D01*
X106546666Y-69155642D01*
X106546666Y-69041357D01*
X106584761Y-68965166D01*
X106622857Y-68927071D01*
X106699047Y-68888976D01*
X106889523Y-68888976D01*
X106965714Y-68927071D01*
X107003809Y-68965166D01*
X107041904Y-69041357D01*
X107041904Y-69269928D01*
X107003809Y-69346119D01*
X106965714Y-69384214D01*
X106241904Y-68660404D02*
X107041904Y-68393738D01*
X106241904Y-68127071D01*
X106241904Y-67936595D02*
X106241904Y-67441357D01*
X106546666Y-67708023D01*
X106546666Y-67593738D01*
X106584761Y-67517547D01*
X106622857Y-67479452D01*
X106699047Y-67441357D01*
X106889523Y-67441357D01*
X106965714Y-67479452D01*
X107003809Y-67517547D01*
X107041904Y-67593738D01*
X107041904Y-67822309D01*
X107003809Y-67898500D01*
X106965714Y-67936595D01*
X101926735Y-74712023D02*
X101126735Y-74712023D01*
X101126735Y-74407261D01*
X101164831Y-74331071D01*
X101202926Y-74292976D01*
X101279116Y-74254880D01*
X101393402Y-74254880D01*
X101469592Y-74292976D01*
X101507688Y-74331071D01*
X101545783Y-74407261D01*
X101545783Y-74712023D01*
X101698164Y-73950119D02*
X101698164Y-73569166D01*
X101926735Y-74026309D02*
X101126735Y-73759642D01*
X101926735Y-73492976D01*
X101202926Y-73264404D02*
X101164831Y-73226309D01*
X101126735Y-73150119D01*
X101126735Y-72959642D01*
X101164831Y-72883452D01*
X101202926Y-72845357D01*
X101279116Y-72807261D01*
X101355307Y-72807261D01*
X101469592Y-72845357D01*
X101926735Y-73302500D01*
X101926735Y-72807261D01*
X94330334Y-74712023D02*
X93530334Y-74712023D01*
X93530334Y-74407261D01*
X93568430Y-74331071D01*
X93606525Y-74292976D01*
X93682715Y-74254880D01*
X93797001Y-74254880D01*
X93873191Y-74292976D01*
X93911287Y-74331071D01*
X93949382Y-74407261D01*
X93949382Y-74712023D01*
X94330334Y-73912023D02*
X93530334Y-73912023D01*
X93530334Y-73721547D01*
X93568430Y-73607261D01*
X93644620Y-73531071D01*
X93720810Y-73492976D01*
X93873191Y-73454880D01*
X93987477Y-73454880D01*
X94139858Y-73492976D01*
X94216049Y-73531071D01*
X94292239Y-73607261D01*
X94330334Y-73721547D01*
X94330334Y-73912023D01*
X93530334Y-72769166D02*
X93530334Y-72921547D01*
X93568430Y-72997738D01*
X93606525Y-73035833D01*
X93720810Y-73112023D01*
X93873191Y-73150119D01*
X94177953Y-73150119D01*
X94254144Y-73112023D01*
X94292239Y-73073928D01*
X94330334Y-72997738D01*
X94330334Y-72845357D01*
X94292239Y-72769166D01*
X94254144Y-72731071D01*
X94177953Y-72692976D01*
X93987477Y-72692976D01*
X93911287Y-72731071D01*
X93873191Y-72769166D01*
X93835096Y-72845357D01*
X93835096Y-72997738D01*
X93873191Y-73073928D01*
X93911287Y-73112023D01*
X93987477Y-73150119D01*
X108781904Y-74826309D02*
X109581904Y-74559642D01*
X108781904Y-74292976D01*
X109581904Y-74026309D02*
X108781904Y-74026309D01*
X109581904Y-73645357D02*
X108781904Y-73645357D01*
X109581904Y-73188214D01*
X108781904Y-73188214D01*
X108781904Y-69422309D02*
X109581904Y-69155642D01*
X108781904Y-68888976D01*
X109581904Y-68622309D02*
X108781904Y-68622309D01*
X108781904Y-68431833D01*
X108820000Y-68317547D01*
X108896190Y-68241357D01*
X108972380Y-68203261D01*
X109124761Y-68165166D01*
X109239047Y-68165166D01*
X109391428Y-68203261D01*
X109467619Y-68241357D01*
X109543809Y-68317547D01*
X109581904Y-68431833D01*
X109581904Y-68622309D01*
X109581904Y-67822309D02*
X108781904Y-67822309D01*
X108781904Y-67631833D01*
X108820000Y-67517547D01*
X108896190Y-67441357D01*
X108972380Y-67403261D01*
X109124761Y-67365166D01*
X109239047Y-67365166D01*
X109391428Y-67403261D01*
X109467619Y-67441357D01*
X109543809Y-67517547D01*
X109581904Y-67631833D01*
X109581904Y-67822309D01*
X89261904Y-56768928D02*
X88461904Y-56768928D01*
X88461904Y-56464166D01*
X88500000Y-56387976D01*
X88538095Y-56349880D01*
X88614285Y-56311785D01*
X88728571Y-56311785D01*
X88804761Y-56349880D01*
X88842857Y-56387976D01*
X88880952Y-56464166D01*
X88880952Y-56768928D01*
X89261904Y-55968928D02*
X88461904Y-55968928D01*
X88461904Y-55778452D01*
X88500000Y-55664166D01*
X88576190Y-55587976D01*
X88652380Y-55549880D01*
X88804761Y-55511785D01*
X88919047Y-55511785D01*
X89071428Y-55549880D01*
X89147619Y-55587976D01*
X89223809Y-55664166D01*
X89261904Y-55778452D01*
X89261904Y-55968928D01*
X88461904Y-55245119D02*
X88461904Y-54749880D01*
X88766666Y-55016547D01*
X88766666Y-54902261D01*
X88804761Y-54826071D01*
X88842857Y-54787976D01*
X88919047Y-54749880D01*
X89109523Y-54749880D01*
X89185714Y-54787976D01*
X89223809Y-54826071D01*
X89261904Y-54902261D01*
X89261904Y-55130833D01*
X89223809Y-55207023D01*
X89185714Y-55245119D01*
X104564374Y-56768928D02*
X103764374Y-56768928D01*
X103764374Y-56464166D01*
X103802470Y-56387976D01*
X103840565Y-56349880D01*
X103916755Y-56311785D01*
X104031041Y-56311785D01*
X104107231Y-56349880D01*
X104145327Y-56387976D01*
X104183422Y-56464166D01*
X104183422Y-56768928D01*
X104488184Y-55511785D02*
X104526279Y-55549880D01*
X104564374Y-55664166D01*
X104564374Y-55740357D01*
X104526279Y-55854642D01*
X104450089Y-55930833D01*
X104373898Y-55968928D01*
X104221517Y-56007023D01*
X104107231Y-56007023D01*
X103954850Y-55968928D01*
X103878660Y-55930833D01*
X103802470Y-55854642D01*
X103764374Y-55740357D01*
X103764374Y-55664166D01*
X103802470Y-55549880D01*
X103840565Y-55511785D01*
X104031041Y-54826071D02*
X104564374Y-54826071D01*
X103726279Y-55016547D02*
X104297708Y-55207023D01*
X104297708Y-54711785D01*
X106241904Y-74788214D02*
X106241904Y-74292976D01*
X106546666Y-74559642D01*
X106546666Y-74445357D01*
X106584761Y-74369166D01*
X106622857Y-74331071D01*
X106699047Y-74292976D01*
X106889523Y-74292976D01*
X106965714Y-74331071D01*
X107003809Y-74369166D01*
X107041904Y-74445357D01*
X107041904Y-74673928D01*
X107003809Y-74750119D01*
X106965714Y-74788214D01*
X106241904Y-74064404D02*
X107041904Y-73797738D01*
X106241904Y-73531071D01*
X106241904Y-73340595D02*
X106241904Y-72845357D01*
X106546666Y-73112023D01*
X106546666Y-72997738D01*
X106584761Y-72921547D01*
X106622857Y-72883452D01*
X106699047Y-72845357D01*
X106889523Y-72845357D01*
X106965714Y-72883452D01*
X107003809Y-72921547D01*
X107041904Y-72997738D01*
X107041904Y-73226309D01*
X107003809Y-73302500D01*
X106965714Y-73340595D01*
X107002625Y-62860547D02*
X107040720Y-62746261D01*
X107040720Y-62555785D01*
X107002625Y-62479595D01*
X106964530Y-62441500D01*
X106888339Y-62403404D01*
X106812149Y-62403404D01*
X106735958Y-62441500D01*
X106697863Y-62479595D01*
X106659768Y-62555785D01*
X106621673Y-62708166D01*
X106583577Y-62784357D01*
X106545482Y-62822452D01*
X106469292Y-62860547D01*
X106393101Y-62860547D01*
X106316911Y-62822452D01*
X106278816Y-62784357D01*
X106240720Y-62708166D01*
X106240720Y-62517690D01*
X106278816Y-62403404D01*
X106240720Y-62136738D02*
X107040720Y-61946261D01*
X106469292Y-61793880D01*
X107040720Y-61641500D01*
X106240720Y-61451023D01*
X107040720Y-61146261D02*
X106240720Y-61146261D01*
X107040720Y-60765309D02*
X106240720Y-60765309D01*
X106812149Y-60498642D01*
X106240720Y-60231976D01*
X107040720Y-60231976D01*
X95856000Y-74902500D02*
X95856000Y-74102500D01*
X96881904Y-74254880D02*
X96500952Y-74521547D01*
X96881904Y-74712023D02*
X96081904Y-74712023D01*
X96081904Y-74407261D01*
X96120000Y-74331071D01*
X96158095Y-74292976D01*
X96234285Y-74254880D01*
X96348571Y-74254880D01*
X96424761Y-74292976D01*
X96462857Y-74331071D01*
X96500952Y-74407261D01*
X96500952Y-74712023D01*
X95856000Y-74102500D02*
X95856000Y-73340595D01*
X96843809Y-73950119D02*
X96881904Y-73835833D01*
X96881904Y-73645357D01*
X96843809Y-73569166D01*
X96805714Y-73531071D01*
X96729523Y-73492976D01*
X96653333Y-73492976D01*
X96577142Y-73531071D01*
X96539047Y-73569166D01*
X96500952Y-73645357D01*
X96462857Y-73797738D01*
X96424761Y-73873928D01*
X96386666Y-73912023D01*
X96310476Y-73950119D01*
X96234285Y-73950119D01*
X96158095Y-73912023D01*
X96120000Y-73873928D01*
X96081904Y-73797738D01*
X96081904Y-73607261D01*
X96120000Y-73492976D01*
X95856000Y-73340595D02*
X95856000Y-72731071D01*
X96081904Y-73264404D02*
X96081904Y-72807261D01*
X96881904Y-73035833D02*
X96081904Y-73035833D01*
X89261904Y-74712023D02*
X88461904Y-74712023D01*
X88461904Y-74407261D01*
X88500000Y-74331071D01*
X88538095Y-74292976D01*
X88614285Y-74254880D01*
X88728571Y-74254880D01*
X88804761Y-74292976D01*
X88842857Y-74331071D01*
X88880952Y-74407261D01*
X88880952Y-74712023D01*
X89261904Y-73912023D02*
X88461904Y-73912023D01*
X88461904Y-73721547D01*
X88500000Y-73607261D01*
X88576190Y-73531071D01*
X88652380Y-73492976D01*
X88804761Y-73454880D01*
X88919047Y-73454880D01*
X89071428Y-73492976D01*
X89147619Y-73531071D01*
X89223809Y-73607261D01*
X89261904Y-73721547D01*
X89261904Y-73912023D01*
X88728571Y-72769166D02*
X89261904Y-72769166D01*
X88423809Y-72959642D02*
X88995238Y-73150119D01*
X88995238Y-72654880D01*
X103701904Y-62251023D02*
X104501904Y-61984357D01*
X103701904Y-61717690D01*
X104501904Y-61451023D02*
X103701904Y-61451023D01*
X103701904Y-61260547D01*
X103740000Y-61146261D01*
X103816190Y-61070071D01*
X103892380Y-61031976D01*
X104044761Y-60993880D01*
X104159047Y-60993880D01*
X104311428Y-61031976D01*
X104387619Y-61070071D01*
X104463809Y-61146261D01*
X104501904Y-61260547D01*
X104501904Y-61451023D01*
X104501904Y-60651023D02*
X103701904Y-60651023D01*
X103701904Y-60460547D01*
X103740000Y-60346261D01*
X103816190Y-60270071D01*
X103892380Y-60231976D01*
X104044761Y-60193880D01*
X104159047Y-60193880D01*
X104311428Y-60231976D01*
X104387619Y-60270071D01*
X104463809Y-60346261D01*
X104501904Y-60460547D01*
X104501904Y-60651023D01*
X107041904Y-56768928D02*
X106241904Y-56768928D01*
X106241904Y-56464166D01*
X106280000Y-56387976D01*
X106318095Y-56349880D01*
X106394285Y-56311785D01*
X106508571Y-56311785D01*
X106584761Y-56349880D01*
X106622857Y-56387976D01*
X106660952Y-56464166D01*
X106660952Y-56768928D01*
X106965714Y-55511785D02*
X107003809Y-55549880D01*
X107041904Y-55664166D01*
X107041904Y-55740357D01*
X107003809Y-55854642D01*
X106927619Y-55930833D01*
X106851428Y-55968928D01*
X106699047Y-56007023D01*
X106584761Y-56007023D01*
X106432380Y-55968928D01*
X106356190Y-55930833D01*
X106280000Y-55854642D01*
X106241904Y-55740357D01*
X106241904Y-55664166D01*
X106280000Y-55549880D01*
X106318095Y-55511785D01*
X106241904Y-55245119D02*
X106241904Y-54749880D01*
X106546666Y-55016547D01*
X106546666Y-54902261D01*
X106584761Y-54826071D01*
X106622857Y-54787976D01*
X106699047Y-54749880D01*
X106889523Y-54749880D01*
X106965714Y-54787976D01*
X107003809Y-54826071D01*
X107041904Y-54902261D01*
X107041904Y-55130833D01*
X107003809Y-55207023D01*
X106965714Y-55245119D01*
D11*
X95218600Y-56651514D02*
X95197171Y-56672942D01*
X95132885Y-56715800D01*
X95090028Y-56737228D01*
X95025742Y-56758657D01*
X94918600Y-56780085D01*
X94832885Y-56780085D01*
X94725742Y-56758657D01*
X94661457Y-56737228D01*
X94618600Y-56715800D01*
X94554314Y-56672942D01*
X94532885Y-56651514D01*
X95025742Y-56501514D02*
X95047171Y-56437228D01*
X95047171Y-56330085D01*
X95025742Y-56287228D01*
X95004314Y-56265800D01*
X94961457Y-56244371D01*
X94918600Y-56244371D01*
X94875742Y-56265800D01*
X94854314Y-56287228D01*
X94832885Y-56330085D01*
X94811457Y-56415800D01*
X94790028Y-56458657D01*
X94768600Y-56480085D01*
X94725742Y-56501514D01*
X94682885Y-56501514D01*
X94640028Y-56480085D01*
X94618600Y-56458657D01*
X94597171Y-56415800D01*
X94597171Y-56308657D01*
X94618600Y-56244371D01*
X94597171Y-56094371D02*
X95047171Y-55987228D01*
X94725742Y-55901514D01*
X95047171Y-55815800D01*
X94597171Y-55708657D01*
X95047171Y-55537228D02*
X94597171Y-55537228D01*
X95047171Y-55322942D02*
X94597171Y-55322942D01*
X94918600Y-55172942D01*
X94597171Y-55022942D01*
X95047171Y-55022942D01*
X95218600Y-54851514D02*
X95197171Y-54830085D01*
X95132885Y-54787228D01*
X95090028Y-54765800D01*
X95025742Y-54744371D01*
X94918600Y-54722942D01*
X94832885Y-54722942D01*
X94725742Y-54744371D01*
X94661457Y-54765800D01*
X94618600Y-54787228D01*
X94554314Y-54830085D01*
X94532885Y-54851514D01*
D10*
X99421904Y-74712023D02*
X98621904Y-74712023D01*
X98621904Y-74407261D01*
X98660000Y-74331071D01*
X98698095Y-74292976D01*
X98774285Y-74254880D01*
X98888571Y-74254880D01*
X98964761Y-74292976D01*
X99002857Y-74331071D01*
X99040952Y-74407261D01*
X99040952Y-74712023D01*
X99193333Y-73950119D02*
X99193333Y-73569166D01*
X99421904Y-74026309D02*
X98621904Y-73759642D01*
X99421904Y-73492976D01*
X99421904Y-72807261D02*
X99421904Y-73264404D01*
X99421904Y-73035833D02*
X98621904Y-73035833D01*
X98736190Y-73112023D01*
X98812380Y-73188214D01*
X98850476Y-73264404D01*
X91801904Y-56768928D02*
X91001904Y-56768928D01*
X91001904Y-56464166D01*
X91040000Y-56387976D01*
X91078095Y-56349880D01*
X91154285Y-56311785D01*
X91268571Y-56311785D01*
X91344761Y-56349880D01*
X91382857Y-56387976D01*
X91420952Y-56464166D01*
X91420952Y-56768928D01*
X91801904Y-55968928D02*
X91001904Y-55968928D01*
X91001904Y-55778452D01*
X91040000Y-55664166D01*
X91116190Y-55587976D01*
X91192380Y-55549880D01*
X91344761Y-55511785D01*
X91459047Y-55511785D01*
X91611428Y-55549880D01*
X91687619Y-55587976D01*
X91763809Y-55664166D01*
X91801904Y-55778452D01*
X91801904Y-55968928D01*
X91078095Y-55207023D02*
X91040000Y-55168928D01*
X91001904Y-55092738D01*
X91001904Y-54902261D01*
X91040000Y-54826071D01*
X91078095Y-54787976D01*
X91154285Y-54749880D01*
X91230476Y-54749880D01*
X91344761Y-54787976D01*
X91801904Y-55245119D01*
X91801904Y-54749880D01*
D11*
%TO.C,SW1*%
X102444666Y-66831333D02*
X102544666Y-66864666D01*
X102711333Y-66864666D01*
X102778000Y-66831333D01*
X102811333Y-66798000D01*
X102844666Y-66731333D01*
X102844666Y-66664666D01*
X102811333Y-66598000D01*
X102778000Y-66564666D01*
X102711333Y-66531333D01*
X102578000Y-66498000D01*
X102511333Y-66464666D01*
X102478000Y-66431333D01*
X102444666Y-66364666D01*
X102444666Y-66298000D01*
X102478000Y-66231333D01*
X102511333Y-66198000D01*
X102578000Y-66164666D01*
X102744666Y-66164666D01*
X102844666Y-66198000D01*
X103078000Y-66164666D02*
X103244666Y-66864666D01*
X103378000Y-66364666D01*
X103511333Y-66864666D01*
X103678000Y-66164666D01*
X104311333Y-66864666D02*
X103911333Y-66864666D01*
X104111333Y-66864666D02*
X104111333Y-66164666D01*
X104044666Y-66264666D01*
X103978000Y-66331333D01*
X103911333Y-66364666D01*
%TO.C,D1*%
X92955333Y-71436666D02*
X92955333Y-70736666D01*
X93122000Y-70736666D01*
X93222000Y-70770000D01*
X93288666Y-70836666D01*
X93322000Y-70903333D01*
X93355333Y-71036666D01*
X93355333Y-71136666D01*
X93322000Y-71270000D01*
X93288666Y-71336666D01*
X93222000Y-71403333D01*
X93122000Y-71436666D01*
X92955333Y-71436666D01*
X94022000Y-71436666D02*
X93622000Y-71436666D01*
X93822000Y-71436666D02*
X93822000Y-70736666D01*
X93755333Y-70836666D01*
X93688666Y-70903333D01*
X93622000Y-70936666D01*
%TO.C,J4*%
X101724666Y-58653333D02*
X102224666Y-58653333D01*
X102324666Y-58686666D01*
X102391333Y-58753333D01*
X102424666Y-58853333D01*
X102424666Y-58920000D01*
X101958000Y-58020000D02*
X102424666Y-58020000D01*
X101691333Y-58186666D02*
X102191333Y-58353333D01*
X102191333Y-57920000D01*
%TO.C,U2*%
X88116666Y-70129333D02*
X88683333Y-70129333D01*
X88750000Y-70096000D01*
X88783333Y-70062666D01*
X88816666Y-69996000D01*
X88816666Y-69862666D01*
X88783333Y-69796000D01*
X88750000Y-69762666D01*
X88683333Y-69729333D01*
X88116666Y-69729333D01*
X88183333Y-69429333D02*
X88150000Y-69396000D01*
X88116666Y-69329333D01*
X88116666Y-69162666D01*
X88150000Y-69096000D01*
X88183333Y-69062666D01*
X88250000Y-69029333D01*
X88316666Y-69029333D01*
X88416666Y-69062666D01*
X88816666Y-69462666D01*
X88816666Y-69029333D01*
%TO.C,J1*%
X104264666Y-71353333D02*
X104764666Y-71353333D01*
X104864666Y-71386666D01*
X104931333Y-71453333D01*
X104964666Y-71553333D01*
X104964666Y-71620000D01*
X104964666Y-70653333D02*
X104964666Y-71053333D01*
X104964666Y-70853333D02*
X104264666Y-70853333D01*
X104364666Y-70920000D01*
X104431333Y-70986666D01*
X104464666Y-71053333D01*
D12*
%TO.C,SW1*%
X104636000Y-63174000D02*
X110756000Y-63174000D01*
X110756000Y-66874000D02*
X104636000Y-66874000D01*
X104636000Y-66874000D02*
X104636000Y-63174000D01*
X110756000Y-63174000D02*
X110756000Y-66874000D01*
%TO.C,D1*%
X92460000Y-72080000D02*
X92460000Y-70160000D01*
X89600000Y-72080000D02*
X92460000Y-72080000D01*
X92460000Y-70160000D02*
X89600000Y-70160000D01*
D13*
%TO.C,REF\u002A\u002A*%
X92239158Y-65177906D02*
X92251736Y-65145381D01*
X92251736Y-65145381D02*
X92276712Y-65095807D01*
X92276712Y-65095807D02*
X92315876Y-65024626D01*
X92315876Y-65024626D02*
X92318988Y-65019084D01*
X92318988Y-65019084D02*
X92356476Y-64953526D01*
X92356476Y-64953526D02*
X92389319Y-64898202D01*
X92389319Y-64898202D02*
X92414205Y-64858545D01*
X92414205Y-64858545D02*
X92427820Y-64839988D01*
X92427820Y-64839988D02*
X92428487Y-64839469D01*
X92428487Y-64839469D02*
X92447390Y-64843952D01*
X92447390Y-64843952D02*
X92489605Y-64864514D01*
X92489605Y-64864514D02*
X92552832Y-64899817D01*
X92552832Y-64899817D02*
X92634772Y-64948520D01*
X92634772Y-64948520D02*
X92733122Y-65009282D01*
X92733122Y-65009282D02*
X92845585Y-65080764D01*
X92845585Y-65080764D02*
X92873165Y-65098555D01*
X92873165Y-65098555D02*
X92949699Y-65144907D01*
X92949699Y-65144907D02*
X93015556Y-65178658D01*
X93015556Y-65178658D02*
X93064782Y-65196847D01*
X93064782Y-65196847D02*
X93074507Y-65198714D01*
X93074507Y-65198714D02*
X93117312Y-65197885D01*
X93117312Y-65197885D02*
X93185209Y-65188606D01*
X93185209Y-65188606D02*
X93273843Y-65172032D01*
X93273843Y-65172032D02*
X93378859Y-65149320D01*
X93378859Y-65149320D02*
X93495902Y-65121627D01*
X93495902Y-65121627D02*
X93620616Y-65090110D01*
X93620616Y-65090110D02*
X93748645Y-65055925D01*
X93748645Y-65055925D02*
X93875634Y-65020229D01*
X93875634Y-65020229D02*
X93997228Y-64984179D01*
X93997228Y-64984179D02*
X94109072Y-64948932D01*
X94109072Y-64948932D02*
X94206810Y-64915644D01*
X94206810Y-64915644D02*
X94286087Y-64885472D01*
X94286087Y-64885472D02*
X94333122Y-64864439D01*
X94333122Y-64864439D02*
X94383225Y-64839663D01*
X94383225Y-64839663D02*
X94431168Y-64816270D01*
X94431168Y-64816270D02*
X94433793Y-64815003D01*
X94433793Y-64815003D02*
X94482220Y-64776301D01*
X94482220Y-64776301D02*
X94514828Y-64719816D01*
X94514828Y-64719816D02*
X94530454Y-64654061D01*
X94530454Y-64654061D02*
X94527937Y-64587549D01*
X94527937Y-64587549D02*
X94506114Y-64528795D01*
X94506114Y-64528795D02*
X94477382Y-64495742D01*
X94477382Y-64495742D02*
X94398583Y-64448141D01*
X94398583Y-64448141D02*
X94300378Y-64413261D01*
X94300378Y-64413261D02*
X94192779Y-64394123D01*
X94192779Y-64394123D02*
X94131780Y-64391412D01*
X94131780Y-64391412D02*
X94017935Y-64402330D01*
X94017935Y-64402330D02*
X93923660Y-64434376D01*
X93923660Y-64434376D02*
X93844379Y-64489274D01*
X93844379Y-64489274D02*
X93826733Y-64506393D01*
X93826733Y-64506393D02*
X93777235Y-64557339D01*
X93777235Y-64557339D02*
X93427362Y-64560837D01*
X93427362Y-64560837D02*
X93077489Y-64564336D01*
X93077489Y-64564336D02*
X92942531Y-64475182D01*
X92942531Y-64475182D02*
X92881445Y-64433346D01*
X92881445Y-64433346D02*
X92826493Y-64393055D01*
X92826493Y-64393055D02*
X92785336Y-64360057D01*
X92785336Y-64360057D02*
X92770192Y-64345874D01*
X92770192Y-64345874D02*
X92732810Y-64305719D01*
X92732810Y-64305719D02*
X92762098Y-64251335D01*
X92762098Y-64251335D02*
X92783084Y-64216961D01*
X92783084Y-64216961D02*
X92799378Y-64198154D01*
X92799378Y-64198154D02*
X92802307Y-64196951D01*
X92802307Y-64196951D02*
X92814728Y-64184097D01*
X92814728Y-64184097D02*
X92823977Y-64162104D01*
X92823977Y-64162104D02*
X92832313Y-64140850D01*
X92832313Y-64140850D02*
X92848149Y-64108306D01*
X92848149Y-64108306D02*
X92873033Y-64061678D01*
X92873033Y-64061678D02*
X92908509Y-63998171D01*
X92908509Y-63998171D02*
X92956123Y-63914992D01*
X92956123Y-63914992D02*
X93017422Y-63809347D01*
X93017422Y-63809347D02*
X93050932Y-63751938D01*
X93050932Y-63751938D02*
X93091071Y-63684406D01*
X93091071Y-63684406D02*
X93119659Y-63640115D01*
X93119659Y-63640115D02*
X93140039Y-63615145D01*
X93140039Y-63615145D02*
X93155553Y-63605577D01*
X93155553Y-63605577D02*
X93169546Y-63607492D01*
X93169546Y-63607492D02*
X93172796Y-63609089D01*
X93172796Y-63609089D02*
X93193266Y-63624624D01*
X93193266Y-63624624D02*
X93231665Y-63657864D01*
X93231665Y-63657864D02*
X93283696Y-63704938D01*
X93283696Y-63704938D02*
X93345066Y-63761972D01*
X93345066Y-63761972D02*
X93397090Y-63811300D01*
X93397090Y-63811300D02*
X93520567Y-63924970D01*
X93520567Y-63924970D02*
X93627591Y-64013895D01*
X93627591Y-64013895D02*
X93719240Y-64078866D01*
X93719240Y-64078866D02*
X93796588Y-64120679D01*
X93796588Y-64120679D02*
X93835866Y-64134783D01*
X93835866Y-64134783D02*
X93870249Y-64140608D01*
X93870249Y-64140608D02*
X93928899Y-64146625D01*
X93928899Y-64146625D02*
X94005117Y-64152304D01*
X94005117Y-64152304D02*
X94092202Y-64157116D01*
X94092202Y-64157116D02*
X94147268Y-64159381D01*
X94147268Y-64159381D02*
X94242464Y-64162541D01*
X94242464Y-64162541D02*
X94312062Y-64163931D01*
X94312062Y-64163931D02*
X94361409Y-64163142D01*
X94361409Y-64163142D02*
X94395854Y-64159765D01*
X94395854Y-64159765D02*
X94420743Y-64153392D01*
X94420743Y-64153392D02*
X94441425Y-64143613D01*
X94441425Y-64143613D02*
X94454053Y-64135933D01*
X94454053Y-64135933D02*
X94502726Y-64091579D01*
X94502726Y-64091579D02*
X94536645Y-64034426D01*
X94536645Y-64034426D02*
X94551438Y-63974292D01*
X94551438Y-63974292D02*
X94546086Y-63929227D01*
X94546086Y-63929227D02*
X94522930Y-63888424D01*
X94522930Y-63888424D02*
X94481462Y-63837276D01*
X94481462Y-63837276D02*
X94428912Y-63782958D01*
X94428912Y-63782958D02*
X94372516Y-63732643D01*
X94372516Y-63732643D02*
X94319505Y-63693506D01*
X94319505Y-63693506D02*
X94293889Y-63679095D01*
X94293889Y-63679095D02*
X94258814Y-63657509D01*
X94258814Y-63657509D02*
X94205389Y-63618247D01*
X94205389Y-63618247D02*
X94137789Y-63564898D01*
X94137789Y-63564898D02*
X94060190Y-63501048D01*
X94060190Y-63501048D02*
X93976768Y-63430285D01*
X93976768Y-63430285D02*
X93891698Y-63356196D01*
X93891698Y-63356196D02*
X93809155Y-63282368D01*
X93809155Y-63282368D02*
X93733316Y-63212389D01*
X93733316Y-63212389D02*
X93668356Y-63149845D01*
X93668356Y-63149845D02*
X93620669Y-63100740D01*
X93620669Y-63100740D02*
X93573032Y-63046221D01*
X93573032Y-63046221D02*
X93537908Y-63000358D01*
X93537908Y-63000358D02*
X93518949Y-62968189D01*
X93518949Y-62968189D02*
X93516864Y-62957511D01*
X93516864Y-62957511D02*
X93525274Y-62941147D01*
X93525274Y-62941147D02*
X93547846Y-62900329D01*
X93547846Y-62900329D02*
X93583224Y-62837414D01*
X93583224Y-62837414D02*
X93630054Y-62754756D01*
X93630054Y-62754756D02*
X93686981Y-62654711D01*
X93686981Y-62654711D02*
X93752649Y-62539634D01*
X93752649Y-62539634D02*
X93825703Y-62411881D01*
X93825703Y-62411881D02*
X93904788Y-62273806D01*
X93904788Y-62273806D02*
X93988548Y-62127766D01*
X93988548Y-62127766D02*
X94075629Y-61976116D01*
X94075629Y-61976116D02*
X94164676Y-61821210D01*
X94164676Y-61821210D02*
X94254332Y-61665405D01*
X94254332Y-61665405D02*
X94343243Y-61511056D01*
X94343243Y-61511056D02*
X94430054Y-61360518D01*
X94430054Y-61360518D02*
X94513409Y-61216146D01*
X94513409Y-61216146D02*
X94591954Y-61080296D01*
X94591954Y-61080296D02*
X94664333Y-60955323D01*
X94664333Y-60955323D02*
X94729190Y-60843583D01*
X94729190Y-60843583D02*
X94785171Y-60747430D01*
X94785171Y-60747430D02*
X94830920Y-60669221D01*
X94830920Y-60669221D02*
X94865083Y-60611311D01*
X94865083Y-60611311D02*
X94886304Y-60576054D01*
X94886304Y-60576054D02*
X94892963Y-60565835D01*
X94892963Y-60565835D02*
X94894280Y-60579598D01*
X94894280Y-60579598D02*
X94895559Y-60622896D01*
X94895559Y-60622896D02*
X94896796Y-60694286D01*
X94896796Y-60694286D02*
X94897983Y-60792327D01*
X94897983Y-60792327D02*
X94899115Y-60915578D01*
X94899115Y-60915578D02*
X94900186Y-61062597D01*
X94900186Y-61062597D02*
X94901189Y-61231943D01*
X94901189Y-61231943D02*
X94902119Y-61422174D01*
X94902119Y-61422174D02*
X94902968Y-61631849D01*
X94902968Y-61631849D02*
X94903732Y-61859527D01*
X94903732Y-61859527D02*
X94904403Y-62103765D01*
X94904403Y-62103765D02*
X94904976Y-62363123D01*
X94904976Y-62363123D02*
X94905444Y-62636159D01*
X94905444Y-62636159D02*
X94905802Y-62921432D01*
X94905802Y-62921432D02*
X94906042Y-63217500D01*
X94906042Y-63217500D02*
X94906159Y-63522921D01*
X94906159Y-63522921D02*
X94906171Y-63651076D01*
X94906171Y-63651076D02*
X94906171Y-66751030D01*
X94906171Y-66751030D02*
X94522847Y-66529947D01*
X94522847Y-66529947D02*
X94441680Y-66483144D01*
X94441680Y-66483144D02*
X94337166Y-66422898D01*
X94337166Y-66422898D02*
X94212801Y-66351222D01*
X94212801Y-66351222D02*
X94072082Y-66270131D01*
X94072082Y-66270131D02*
X93918503Y-66181638D01*
X93918503Y-66181638D02*
X93755562Y-66087760D01*
X93755562Y-66087760D02*
X93586754Y-65990509D01*
X93586754Y-65990509D02*
X93415575Y-65891900D01*
X93415575Y-65891900D02*
X93245521Y-65793947D01*
X93245521Y-65793947D02*
X93202512Y-65769175D01*
X93202512Y-65769175D02*
X93045857Y-65678848D01*
X93045857Y-65678848D02*
X92896803Y-65592711D01*
X92896803Y-65592711D02*
X92757568Y-65512058D01*
X92757568Y-65512058D02*
X92630371Y-65438184D01*
X92630371Y-65438184D02*
X92517432Y-65372383D01*
X92517432Y-65372383D02*
X92420968Y-65315950D01*
X92420968Y-65315950D02*
X92343200Y-65270179D01*
X92343200Y-65270179D02*
X92286346Y-65236365D01*
X92286346Y-65236365D02*
X92252625Y-65215802D01*
X92252625Y-65215802D02*
X92244040Y-65210047D01*
X92244040Y-65210047D02*
X92237189Y-65197942D01*
X92237189Y-65197942D02*
X92239158Y-65177906D01*
X92239158Y-65177906D02*
X92239158Y-65177906D01*
G36*
X94894280Y-60579598D02*
G01*
X94895559Y-60622896D01*
X94896796Y-60694286D01*
X94897983Y-60792327D01*
X94899115Y-60915578D01*
X94900186Y-61062597D01*
X94901189Y-61231943D01*
X94902119Y-61422174D01*
X94902968Y-61631849D01*
X94903732Y-61859527D01*
X94904403Y-62103765D01*
X94904976Y-62363123D01*
X94905444Y-62636159D01*
X94905802Y-62921432D01*
X94906042Y-63217500D01*
X94906159Y-63522921D01*
X94906171Y-63651076D01*
X94906171Y-66751030D01*
X94522847Y-66529947D01*
X94441680Y-66483144D01*
X94337166Y-66422898D01*
X94212801Y-66351222D01*
X94072082Y-66270131D01*
X93918503Y-66181638D01*
X93755562Y-66087760D01*
X93586754Y-65990509D01*
X93415575Y-65891900D01*
X93245521Y-65793947D01*
X93202512Y-65769175D01*
X93045857Y-65678848D01*
X92896803Y-65592711D01*
X92757568Y-65512058D01*
X92630371Y-65438184D01*
X92517432Y-65372383D01*
X92420968Y-65315950D01*
X92343200Y-65270179D01*
X92286346Y-65236365D01*
X92252625Y-65215802D01*
X92244040Y-65210047D01*
X92237189Y-65197942D01*
X92239158Y-65177906D01*
X92251736Y-65145381D01*
X92276712Y-65095807D01*
X92315876Y-65024626D01*
X92318988Y-65019084D01*
X92356476Y-64953526D01*
X92389319Y-64898202D01*
X92414205Y-64858545D01*
X92427820Y-64839988D01*
X92428487Y-64839469D01*
X92447390Y-64843952D01*
X92489605Y-64864514D01*
X92552832Y-64899817D01*
X92634772Y-64948520D01*
X92733122Y-65009282D01*
X92845585Y-65080764D01*
X92873165Y-65098555D01*
X92949699Y-65144907D01*
X93015556Y-65178658D01*
X93064782Y-65196847D01*
X93074507Y-65198714D01*
X93117312Y-65197885D01*
X93185209Y-65188606D01*
X93273843Y-65172032D01*
X93378859Y-65149320D01*
X93495902Y-65121627D01*
X93620616Y-65090110D01*
X93748645Y-65055925D01*
X93875634Y-65020229D01*
X93997228Y-64984179D01*
X94109072Y-64948932D01*
X94206810Y-64915644D01*
X94286087Y-64885472D01*
X94333122Y-64864439D01*
X94383225Y-64839663D01*
X94431168Y-64816270D01*
X94433793Y-64815003D01*
X94482220Y-64776301D01*
X94514828Y-64719816D01*
X94530454Y-64654061D01*
X94527937Y-64587549D01*
X94506114Y-64528795D01*
X94477382Y-64495742D01*
X94398583Y-64448141D01*
X94300378Y-64413261D01*
X94192779Y-64394123D01*
X94131780Y-64391412D01*
X94017935Y-64402330D01*
X93923660Y-64434376D01*
X93844379Y-64489274D01*
X93826733Y-64506393D01*
X93777235Y-64557339D01*
X93427362Y-64560837D01*
X93077489Y-64564336D01*
X92942531Y-64475182D01*
X92881445Y-64433346D01*
X92826493Y-64393055D01*
X92785336Y-64360057D01*
X92770192Y-64345874D01*
X92732810Y-64305719D01*
X92762098Y-64251335D01*
X92783084Y-64216961D01*
X92799378Y-64198154D01*
X92802307Y-64196951D01*
X92814728Y-64184097D01*
X92823977Y-64162104D01*
X92832313Y-64140850D01*
X92848149Y-64108306D01*
X92873033Y-64061678D01*
X92908509Y-63998171D01*
X92956123Y-63914992D01*
X93017422Y-63809347D01*
X93050932Y-63751938D01*
X93091071Y-63684406D01*
X93119659Y-63640115D01*
X93140039Y-63615145D01*
X93155553Y-63605577D01*
X93169546Y-63607492D01*
X93172796Y-63609089D01*
X93193266Y-63624624D01*
X93231665Y-63657864D01*
X93283696Y-63704938D01*
X93345066Y-63761972D01*
X93397090Y-63811300D01*
X93520567Y-63924970D01*
X93627591Y-64013895D01*
X93719240Y-64078866D01*
X93796588Y-64120679D01*
X93835866Y-64134783D01*
X93870249Y-64140608D01*
X93928899Y-64146625D01*
X94005117Y-64152304D01*
X94092202Y-64157116D01*
X94147268Y-64159381D01*
X94242464Y-64162541D01*
X94312062Y-64163931D01*
X94361409Y-64163142D01*
X94395854Y-64159765D01*
X94420743Y-64153392D01*
X94441425Y-64143613D01*
X94454053Y-64135933D01*
X94502726Y-64091579D01*
X94536645Y-64034426D01*
X94551438Y-63974292D01*
X94546086Y-63929227D01*
X94522930Y-63888424D01*
X94481462Y-63837276D01*
X94428912Y-63782958D01*
X94372516Y-63732643D01*
X94319505Y-63693506D01*
X94293889Y-63679095D01*
X94258814Y-63657509D01*
X94205389Y-63618247D01*
X94137789Y-63564898D01*
X94060190Y-63501048D01*
X93976768Y-63430285D01*
X93891698Y-63356196D01*
X93809155Y-63282368D01*
X93733316Y-63212389D01*
X93668356Y-63149845D01*
X93620669Y-63100740D01*
X93573032Y-63046221D01*
X93537908Y-63000358D01*
X93518949Y-62968189D01*
X93516864Y-62957511D01*
X93525274Y-62941147D01*
X93547846Y-62900329D01*
X93583224Y-62837414D01*
X93630054Y-62754756D01*
X93686981Y-62654711D01*
X93752649Y-62539634D01*
X93825703Y-62411881D01*
X93904788Y-62273806D01*
X93988548Y-62127766D01*
X94075629Y-61976116D01*
X94164676Y-61821210D01*
X94254332Y-61665405D01*
X94343243Y-61511056D01*
X94430054Y-61360518D01*
X94513409Y-61216146D01*
X94591954Y-61080296D01*
X94664333Y-60955323D01*
X94729190Y-60843583D01*
X94785171Y-60747430D01*
X94830920Y-60669221D01*
X94865083Y-60611311D01*
X94886304Y-60576054D01*
X94892963Y-60565835D01*
X94894280Y-60579598D01*
G37*
X94894280Y-60579598D02*
X94895559Y-60622896D01*
X94896796Y-60694286D01*
X94897983Y-60792327D01*
X94899115Y-60915578D01*
X94900186Y-61062597D01*
X94901189Y-61231943D01*
X94902119Y-61422174D01*
X94902968Y-61631849D01*
X94903732Y-61859527D01*
X94904403Y-62103765D01*
X94904976Y-62363123D01*
X94905444Y-62636159D01*
X94905802Y-62921432D01*
X94906042Y-63217500D01*
X94906159Y-63522921D01*
X94906171Y-63651076D01*
X94906171Y-66751030D01*
X94522847Y-66529947D01*
X94441680Y-66483144D01*
X94337166Y-66422898D01*
X94212801Y-66351222D01*
X94072082Y-66270131D01*
X93918503Y-66181638D01*
X93755562Y-66087760D01*
X93586754Y-65990509D01*
X93415575Y-65891900D01*
X93245521Y-65793947D01*
X93202512Y-65769175D01*
X93045857Y-65678848D01*
X92896803Y-65592711D01*
X92757568Y-65512058D01*
X92630371Y-65438184D01*
X92517432Y-65372383D01*
X92420968Y-65315950D01*
X92343200Y-65270179D01*
X92286346Y-65236365D01*
X92252625Y-65215802D01*
X92244040Y-65210047D01*
X92237189Y-65197942D01*
X92239158Y-65177906D01*
X92251736Y-65145381D01*
X92276712Y-65095807D01*
X92315876Y-65024626D01*
X92318988Y-65019084D01*
X92356476Y-64953526D01*
X92389319Y-64898202D01*
X92414205Y-64858545D01*
X92427820Y-64839988D01*
X92428487Y-64839469D01*
X92447390Y-64843952D01*
X92489605Y-64864514D01*
X92552832Y-64899817D01*
X92634772Y-64948520D01*
X92733122Y-65009282D01*
X92845585Y-65080764D01*
X92873165Y-65098555D01*
X92949699Y-65144907D01*
X93015556Y-65178658D01*
X93064782Y-65196847D01*
X93074507Y-65198714D01*
X93117312Y-65197885D01*
X93185209Y-65188606D01*
X93273843Y-65172032D01*
X93378859Y-65149320D01*
X93495902Y-65121627D01*
X93620616Y-65090110D01*
X93748645Y-65055925D01*
X93875634Y-65020229D01*
X93997228Y-64984179D01*
X94109072Y-64948932D01*
X94206810Y-64915644D01*
X94286087Y-64885472D01*
X94333122Y-64864439D01*
X94383225Y-64839663D01*
X94431168Y-64816270D01*
X94433793Y-64815003D01*
X94482220Y-64776301D01*
X94514828Y-64719816D01*
X94530454Y-64654061D01*
X94527937Y-64587549D01*
X94506114Y-64528795D01*
X94477382Y-64495742D01*
X94398583Y-64448141D01*
X94300378Y-64413261D01*
X94192779Y-64394123D01*
X94131780Y-64391412D01*
X94017935Y-64402330D01*
X93923660Y-64434376D01*
X93844379Y-64489274D01*
X93826733Y-64506393D01*
X93777235Y-64557339D01*
X93427362Y-64560837D01*
X93077489Y-64564336D01*
X92942531Y-64475182D01*
X92881445Y-64433346D01*
X92826493Y-64393055D01*
X92785336Y-64360057D01*
X92770192Y-64345874D01*
X92732810Y-64305719D01*
X92762098Y-64251335D01*
X92783084Y-64216961D01*
X92799378Y-64198154D01*
X92802307Y-64196951D01*
X92814728Y-64184097D01*
X92823977Y-64162104D01*
X92832313Y-64140850D01*
X92848149Y-64108306D01*
X92873033Y-64061678D01*
X92908509Y-63998171D01*
X92956123Y-63914992D01*
X93017422Y-63809347D01*
X93050932Y-63751938D01*
X93091071Y-63684406D01*
X93119659Y-63640115D01*
X93140039Y-63615145D01*
X93155553Y-63605577D01*
X93169546Y-63607492D01*
X93172796Y-63609089D01*
X93193266Y-63624624D01*
X93231665Y-63657864D01*
X93283696Y-63704938D01*
X93345066Y-63761972D01*
X93397090Y-63811300D01*
X93520567Y-63924970D01*
X93627591Y-64013895D01*
X93719240Y-64078866D01*
X93796588Y-64120679D01*
X93835866Y-64134783D01*
X93870249Y-64140608D01*
X93928899Y-64146625D01*
X94005117Y-64152304D01*
X94092202Y-64157116D01*
X94147268Y-64159381D01*
X94242464Y-64162541D01*
X94312062Y-64163931D01*
X94361409Y-64163142D01*
X94395854Y-64159765D01*
X94420743Y-64153392D01*
X94441425Y-64143613D01*
X94454053Y-64135933D01*
X94502726Y-64091579D01*
X94536645Y-64034426D01*
X94551438Y-63974292D01*
X94546086Y-63929227D01*
X94522930Y-63888424D01*
X94481462Y-63837276D01*
X94428912Y-63782958D01*
X94372516Y-63732643D01*
X94319505Y-63693506D01*
X94293889Y-63679095D01*
X94258814Y-63657509D01*
X94205389Y-63618247D01*
X94137789Y-63564898D01*
X94060190Y-63501048D01*
X93976768Y-63430285D01*
X93891698Y-63356196D01*
X93809155Y-63282368D01*
X93733316Y-63212389D01*
X93668356Y-63149845D01*
X93620669Y-63100740D01*
X93573032Y-63046221D01*
X93537908Y-63000358D01*
X93518949Y-62968189D01*
X93516864Y-62957511D01*
X93525274Y-62941147D01*
X93547846Y-62900329D01*
X93583224Y-62837414D01*
X93630054Y-62754756D01*
X93686981Y-62654711D01*
X93752649Y-62539634D01*
X93825703Y-62411881D01*
X93904788Y-62273806D01*
X93988548Y-62127766D01*
X94075629Y-61976116D01*
X94164676Y-61821210D01*
X94254332Y-61665405D01*
X94343243Y-61511056D01*
X94430054Y-61360518D01*
X94513409Y-61216146D01*
X94591954Y-61080296D01*
X94664333Y-60955323D01*
X94729190Y-60843583D01*
X94785171Y-60747430D01*
X94830920Y-60669221D01*
X94865083Y-60611311D01*
X94886304Y-60576054D01*
X94892963Y-60565835D01*
X94894280Y-60579598D01*
X92182619Y-61512472D02*
X92201693Y-61501092D01*
X92201693Y-61501092D02*
X92245421Y-61475512D01*
X92245421Y-61475512D02*
X92311619Y-61436998D01*
X92311619Y-61436998D02*
X92398102Y-61386814D01*
X92398102Y-61386814D02*
X92502685Y-61326225D01*
X92502685Y-61326225D02*
X92623183Y-61256497D01*
X92623183Y-61256497D02*
X92757412Y-61178893D01*
X92757412Y-61178893D02*
X92903187Y-61094680D01*
X92903187Y-61094680D02*
X93058323Y-61005121D01*
X93058323Y-61005121D02*
X93218000Y-60913002D01*
X93218000Y-60913002D02*
X93381117Y-60818924D01*
X93381117Y-60818924D02*
X93537709Y-60728598D01*
X93537709Y-60728598D02*
X93685506Y-60643335D01*
X93685506Y-60643335D02*
X93822240Y-60564443D01*
X93822240Y-60564443D02*
X93945642Y-60493231D01*
X93945642Y-60493231D02*
X94053444Y-60431009D01*
X94053444Y-60431009D02*
X94143377Y-60379087D01*
X94143377Y-60379087D02*
X94213173Y-60338772D01*
X94213173Y-60338772D02*
X94260564Y-60311376D01*
X94260564Y-60311376D02*
X94282786Y-60298493D01*
X94282786Y-60298493D02*
X94320330Y-60277493D01*
X94320330Y-60277493D02*
X94343831Y-60266075D01*
X94343831Y-60266075D02*
X94347920Y-60265449D01*
X94347920Y-60265449D02*
X94340242Y-60279364D01*
X94340242Y-60279364D02*
X94318203Y-60318059D01*
X94318203Y-60318059D02*
X94282971Y-60379513D01*
X94282971Y-60379513D02*
X94235711Y-60461702D01*
X94235711Y-60461702D02*
X94177589Y-60562604D01*
X94177589Y-60562604D02*
X94109771Y-60680195D01*
X94109771Y-60680195D02*
X94033424Y-60812454D01*
X94033424Y-60812454D02*
X93949714Y-60957358D01*
X93949714Y-60957358D02*
X93859806Y-61112883D01*
X93859806Y-61112883D02*
X93764867Y-61277008D01*
X93764867Y-61277008D02*
X93728732Y-61339451D01*
X93728732Y-61339451D02*
X93632083Y-61506513D01*
X93632083Y-61506513D02*
X93539938Y-61665926D01*
X93539938Y-61665926D02*
X93453475Y-61815645D01*
X93453475Y-61815645D02*
X93373871Y-61953624D01*
X93373871Y-61953624D02*
X93302305Y-62077815D01*
X93302305Y-62077815D02*
X93239955Y-62186173D01*
X93239955Y-62186173D02*
X93187998Y-62276652D01*
X93187998Y-62276652D02*
X93147613Y-62347204D01*
X93147613Y-62347204D02*
X93119978Y-62395785D01*
X93119978Y-62395785D02*
X93106272Y-62420346D01*
X93106272Y-62420346D02*
X93104974Y-62422915D01*
X93104974Y-62422915D02*
X93093220Y-62415431D01*
X93093220Y-62415431D02*
X93061795Y-62389386D01*
X93061795Y-62389386D02*
X93013594Y-62347441D01*
X93013594Y-62347441D02*
X92951510Y-62292254D01*
X92951510Y-62292254D02*
X92878439Y-62226483D01*
X92878439Y-62226483D02*
X92797276Y-62152788D01*
X92797276Y-62152788D02*
X92710916Y-62073827D01*
X92710916Y-62073827D02*
X92622253Y-61992260D01*
X92622253Y-61992260D02*
X92534182Y-61910746D01*
X92534182Y-61910746D02*
X92449599Y-61831943D01*
X92449599Y-61831943D02*
X92371397Y-61758510D01*
X92371397Y-61758510D02*
X92302472Y-61693107D01*
X92302472Y-61693107D02*
X92245719Y-61638392D01*
X92245719Y-61638392D02*
X92204032Y-61597023D01*
X92204032Y-61597023D02*
X92190363Y-61582836D01*
X92190363Y-61582836D02*
X92146201Y-61535820D01*
X92146201Y-61535820D02*
X92182619Y-61512472D01*
X92182619Y-61512472D02*
X92182619Y-61512472D01*
G36*
X94340242Y-60279364D02*
G01*
X94318203Y-60318059D01*
X94282971Y-60379513D01*
X94235711Y-60461702D01*
X94177589Y-60562604D01*
X94109771Y-60680195D01*
X94033424Y-60812454D01*
X93949714Y-60957358D01*
X93859806Y-61112883D01*
X93764867Y-61277008D01*
X93728732Y-61339451D01*
X93632083Y-61506513D01*
X93539938Y-61665926D01*
X93453475Y-61815645D01*
X93373871Y-61953624D01*
X93302305Y-62077815D01*
X93239955Y-62186173D01*
X93187998Y-62276652D01*
X93147613Y-62347204D01*
X93119978Y-62395785D01*
X93106272Y-62420346D01*
X93104974Y-62422915D01*
X93093220Y-62415431D01*
X93061795Y-62389386D01*
X93013594Y-62347441D01*
X92951510Y-62292254D01*
X92878439Y-62226483D01*
X92797276Y-62152788D01*
X92710916Y-62073827D01*
X92622253Y-61992260D01*
X92534182Y-61910746D01*
X92449599Y-61831943D01*
X92371397Y-61758510D01*
X92302472Y-61693107D01*
X92245719Y-61638392D01*
X92204032Y-61597023D01*
X92190363Y-61582836D01*
X92146201Y-61535820D01*
X92182619Y-61512472D01*
X92201693Y-61501092D01*
X92245421Y-61475512D01*
X92311619Y-61436998D01*
X92398102Y-61386814D01*
X92502685Y-61326225D01*
X92623183Y-61256497D01*
X92757412Y-61178893D01*
X92903187Y-61094680D01*
X93058323Y-61005121D01*
X93218000Y-60913002D01*
X93381117Y-60818924D01*
X93537709Y-60728598D01*
X93685506Y-60643335D01*
X93822240Y-60564443D01*
X93945642Y-60493231D01*
X94053444Y-60431009D01*
X94143377Y-60379087D01*
X94213173Y-60338772D01*
X94260564Y-60311376D01*
X94282786Y-60298493D01*
X94320330Y-60277493D01*
X94343831Y-60266075D01*
X94347920Y-60265449D01*
X94340242Y-60279364D01*
G37*
X94340242Y-60279364D02*
X94318203Y-60318059D01*
X94282971Y-60379513D01*
X94235711Y-60461702D01*
X94177589Y-60562604D01*
X94109771Y-60680195D01*
X94033424Y-60812454D01*
X93949714Y-60957358D01*
X93859806Y-61112883D01*
X93764867Y-61277008D01*
X93728732Y-61339451D01*
X93632083Y-61506513D01*
X93539938Y-61665926D01*
X93453475Y-61815645D01*
X93373871Y-61953624D01*
X93302305Y-62077815D01*
X93239955Y-62186173D01*
X93187998Y-62276652D01*
X93147613Y-62347204D01*
X93119978Y-62395785D01*
X93106272Y-62420346D01*
X93104974Y-62422915D01*
X93093220Y-62415431D01*
X93061795Y-62389386D01*
X93013594Y-62347441D01*
X92951510Y-62292254D01*
X92878439Y-62226483D01*
X92797276Y-62152788D01*
X92710916Y-62073827D01*
X92622253Y-61992260D01*
X92534182Y-61910746D01*
X92449599Y-61831943D01*
X92371397Y-61758510D01*
X92302472Y-61693107D01*
X92245719Y-61638392D01*
X92204032Y-61597023D01*
X92190363Y-61582836D01*
X92146201Y-61535820D01*
X92182619Y-61512472D01*
X92201693Y-61501092D01*
X92245421Y-61475512D01*
X92311619Y-61436998D01*
X92398102Y-61386814D01*
X92502685Y-61326225D01*
X92623183Y-61256497D01*
X92757412Y-61178893D01*
X92903187Y-61094680D01*
X93058323Y-61005121D01*
X93218000Y-60913002D01*
X93381117Y-60818924D01*
X93537709Y-60728598D01*
X93685506Y-60643335D01*
X93822240Y-60564443D01*
X93945642Y-60493231D01*
X94053444Y-60431009D01*
X94143377Y-60379087D01*
X94213173Y-60338772D01*
X94260564Y-60311376D01*
X94282786Y-60298493D01*
X94320330Y-60277493D01*
X94343831Y-60266075D01*
X94347920Y-60265449D01*
X94340242Y-60279364D01*
X89033835Y-63335957D02*
X89071245Y-63312935D01*
X89071245Y-63312935D02*
X89130514Y-63277466D01*
X89130514Y-63277466D02*
X89209118Y-63231004D01*
X89209118Y-63231004D02*
X89304538Y-63175004D01*
X89304538Y-63175004D02*
X89414250Y-63110919D01*
X89414250Y-63110919D02*
X89535734Y-63040204D01*
X89535734Y-63040204D02*
X89666468Y-62964313D01*
X89666468Y-62964313D02*
X89803930Y-62884701D01*
X89803930Y-62884701D02*
X89945598Y-62802822D01*
X89945598Y-62802822D02*
X90088951Y-62720130D01*
X90088951Y-62720130D02*
X90231467Y-62638079D01*
X90231467Y-62638079D02*
X90370624Y-62558124D01*
X90370624Y-62558124D02*
X90503901Y-62481719D01*
X90503901Y-62481719D02*
X90628776Y-62410318D01*
X90628776Y-62410318D02*
X90742727Y-62345376D01*
X90742727Y-62345376D02*
X90843233Y-62288347D01*
X90843233Y-62288347D02*
X90927772Y-62240685D01*
X90927772Y-62240685D02*
X90993822Y-62203845D01*
X90993822Y-62203845D02*
X91038862Y-62179280D01*
X91038862Y-62179280D02*
X91060370Y-62168446D01*
X91060370Y-62168446D02*
X91061714Y-62168049D01*
X91061714Y-62168049D02*
X91079965Y-62181499D01*
X91079965Y-62181499D02*
X91107882Y-62218886D01*
X91107882Y-62218886D02*
X91142725Y-62275765D01*
X91142725Y-62275765D02*
X91181754Y-62347688D01*
X91181754Y-62347688D02*
X91218843Y-62422985D01*
X91218843Y-62422985D02*
X91263817Y-62525440D01*
X91263817Y-62525440D02*
X91304226Y-62633183D01*
X91304226Y-62633183D02*
X91340969Y-62749927D01*
X91340969Y-62749927D02*
X91374942Y-62879382D01*
X91374942Y-62879382D02*
X91407044Y-63025260D01*
X91407044Y-63025260D02*
X91438173Y-63191274D01*
X91438173Y-63191274D02*
X91469227Y-63381134D01*
X91469227Y-63381134D02*
X91498145Y-63577531D01*
X91498145Y-63577531D02*
X91523800Y-63748166D01*
X91523800Y-63748166D02*
X91549198Y-63891455D01*
X91549198Y-63891455D02*
X91575602Y-64010992D01*
X91575602Y-64010992D02*
X91604273Y-64110370D01*
X91604273Y-64110370D02*
X91636473Y-64193182D01*
X91636473Y-64193182D02*
X91673465Y-64263022D01*
X91673465Y-64263022D02*
X91716512Y-64323482D01*
X91716512Y-64323482D02*
X91766875Y-64378155D01*
X91766875Y-64378155D02*
X91785583Y-64395786D01*
X91785583Y-64395786D02*
X91829139Y-64434000D01*
X91829139Y-64434000D02*
X91864682Y-64462268D01*
X91864682Y-64462268D02*
X91885583Y-64475382D01*
X91885583Y-64475382D02*
X91887297Y-64475732D01*
X91887297Y-64475732D02*
X91897806Y-64480320D01*
X91897806Y-64480320D02*
X91897924Y-64496242D01*
X91897924Y-64496242D02*
X91886254Y-64526734D01*
X91886254Y-64526734D02*
X91861396Y-64575032D01*
X91861396Y-64575032D02*
X91821952Y-64644373D01*
X91821952Y-64644373D02*
X91793587Y-64692561D01*
X91793587Y-64692561D02*
X91749247Y-64764417D01*
X91749247Y-64764417D02*
X91711279Y-64820258D01*
X91711279Y-64820258D02*
X91682416Y-64856333D01*
X91682416Y-64856333D02*
X91665388Y-64868887D01*
X91665388Y-64868887D02*
X91665264Y-64868879D01*
X91665264Y-64868879D02*
X91649037Y-64861094D01*
X91649037Y-64861094D02*
X91608400Y-64839108D01*
X91608400Y-64839108D02*
X91545567Y-64804197D01*
X91545567Y-64804197D02*
X91462752Y-64757637D01*
X91462752Y-64757637D02*
X91362172Y-64700705D01*
X91362172Y-64700705D02*
X91246040Y-64634677D01*
X91246040Y-64634677D02*
X91116571Y-64560828D01*
X91116571Y-64560828D02*
X90975980Y-64480436D01*
X90975980Y-64480436D02*
X90826482Y-64394776D01*
X90826482Y-64394776D02*
X90670292Y-64305124D01*
X90670292Y-64305124D02*
X90509624Y-64212757D01*
X90509624Y-64212757D02*
X90346693Y-64118951D01*
X90346693Y-64118951D02*
X90183713Y-64024982D01*
X90183713Y-64024982D02*
X90022900Y-63932126D01*
X90022900Y-63932126D02*
X89866468Y-63841660D01*
X89866468Y-63841660D02*
X89716633Y-63754859D01*
X89716633Y-63754859D02*
X89575608Y-63673000D01*
X89575608Y-63673000D02*
X89445609Y-63597359D01*
X89445609Y-63597359D02*
X89328849Y-63529213D01*
X89328849Y-63529213D02*
X89227545Y-63469837D01*
X89227545Y-63469837D02*
X89143911Y-63420507D01*
X89143911Y-63420507D02*
X89080162Y-63382500D01*
X89080162Y-63382500D02*
X89038511Y-63357093D01*
X89038511Y-63357093D02*
X89021175Y-63345560D01*
X89021175Y-63345560D02*
X89020805Y-63345077D01*
X89020805Y-63345077D02*
X89033835Y-63335957D01*
X89033835Y-63335957D02*
X89033835Y-63335957D01*
G36*
X91079965Y-62181499D02*
G01*
X91107882Y-62218886D01*
X91142725Y-62275765D01*
X91181754Y-62347688D01*
X91218843Y-62422985D01*
X91263817Y-62525440D01*
X91304226Y-62633183D01*
X91340969Y-62749927D01*
X91374942Y-62879382D01*
X91407044Y-63025260D01*
X91438173Y-63191274D01*
X91469227Y-63381134D01*
X91498145Y-63577531D01*
X91523800Y-63748166D01*
X91549198Y-63891455D01*
X91575602Y-64010992D01*
X91604273Y-64110370D01*
X91636473Y-64193182D01*
X91673465Y-64263022D01*
X91716512Y-64323482D01*
X91766875Y-64378155D01*
X91785583Y-64395786D01*
X91829139Y-64434000D01*
X91864682Y-64462268D01*
X91885583Y-64475382D01*
X91887297Y-64475732D01*
X91897806Y-64480320D01*
X91897924Y-64496242D01*
X91886254Y-64526734D01*
X91861396Y-64575032D01*
X91821952Y-64644373D01*
X91793587Y-64692561D01*
X91749247Y-64764417D01*
X91711279Y-64820258D01*
X91682416Y-64856333D01*
X91665388Y-64868887D01*
X91665264Y-64868879D01*
X91649037Y-64861094D01*
X91608400Y-64839108D01*
X91545567Y-64804197D01*
X91462752Y-64757637D01*
X91362172Y-64700705D01*
X91246040Y-64634677D01*
X91116571Y-64560828D01*
X90975980Y-64480436D01*
X90826482Y-64394776D01*
X90670292Y-64305124D01*
X90509624Y-64212757D01*
X90346693Y-64118951D01*
X90183713Y-64024982D01*
X90022900Y-63932126D01*
X89866468Y-63841660D01*
X89716633Y-63754859D01*
X89575608Y-63673000D01*
X89445609Y-63597359D01*
X89328849Y-63529213D01*
X89227545Y-63469837D01*
X89143911Y-63420507D01*
X89080162Y-63382500D01*
X89038511Y-63357093D01*
X89021175Y-63345560D01*
X89020805Y-63345077D01*
X89033835Y-63335957D01*
X89071245Y-63312935D01*
X89130514Y-63277466D01*
X89209118Y-63231004D01*
X89304538Y-63175004D01*
X89414250Y-63110919D01*
X89535734Y-63040204D01*
X89666468Y-62964313D01*
X89803930Y-62884701D01*
X89945598Y-62802822D01*
X90088951Y-62720130D01*
X90231467Y-62638079D01*
X90370624Y-62558124D01*
X90503901Y-62481719D01*
X90628776Y-62410318D01*
X90742727Y-62345376D01*
X90843233Y-62288347D01*
X90927772Y-62240685D01*
X90993822Y-62203845D01*
X91038862Y-62179280D01*
X91060370Y-62168446D01*
X91061714Y-62168049D01*
X91079965Y-62181499D01*
G37*
X91079965Y-62181499D02*
X91107882Y-62218886D01*
X91142725Y-62275765D01*
X91181754Y-62347688D01*
X91218843Y-62422985D01*
X91263817Y-62525440D01*
X91304226Y-62633183D01*
X91340969Y-62749927D01*
X91374942Y-62879382D01*
X91407044Y-63025260D01*
X91438173Y-63191274D01*
X91469227Y-63381134D01*
X91498145Y-63577531D01*
X91523800Y-63748166D01*
X91549198Y-63891455D01*
X91575602Y-64010992D01*
X91604273Y-64110370D01*
X91636473Y-64193182D01*
X91673465Y-64263022D01*
X91716512Y-64323482D01*
X91766875Y-64378155D01*
X91785583Y-64395786D01*
X91829139Y-64434000D01*
X91864682Y-64462268D01*
X91885583Y-64475382D01*
X91887297Y-64475732D01*
X91897806Y-64480320D01*
X91897924Y-64496242D01*
X91886254Y-64526734D01*
X91861396Y-64575032D01*
X91821952Y-64644373D01*
X91793587Y-64692561D01*
X91749247Y-64764417D01*
X91711279Y-64820258D01*
X91682416Y-64856333D01*
X91665388Y-64868887D01*
X91665264Y-64868879D01*
X91649037Y-64861094D01*
X91608400Y-64839108D01*
X91545567Y-64804197D01*
X91462752Y-64757637D01*
X91362172Y-64700705D01*
X91246040Y-64634677D01*
X91116571Y-64560828D01*
X90975980Y-64480436D01*
X90826482Y-64394776D01*
X90670292Y-64305124D01*
X90509624Y-64212757D01*
X90346693Y-64118951D01*
X90183713Y-64024982D01*
X90022900Y-63932126D01*
X89866468Y-63841660D01*
X89716633Y-63754859D01*
X89575608Y-63673000D01*
X89445609Y-63597359D01*
X89328849Y-63529213D01*
X89227545Y-63469837D01*
X89143911Y-63420507D01*
X89080162Y-63382500D01*
X89038511Y-63357093D01*
X89021175Y-63345560D01*
X89020805Y-63345077D01*
X89033835Y-63335957D01*
X89071245Y-63312935D01*
X89130514Y-63277466D01*
X89209118Y-63231004D01*
X89304538Y-63175004D01*
X89414250Y-63110919D01*
X89535734Y-63040204D01*
X89666468Y-62964313D01*
X89803930Y-62884701D01*
X89945598Y-62802822D01*
X90088951Y-62720130D01*
X90231467Y-62638079D01*
X90370624Y-62558124D01*
X90503901Y-62481719D01*
X90628776Y-62410318D01*
X90742727Y-62345376D01*
X90843233Y-62288347D01*
X90927772Y-62240685D01*
X90993822Y-62203845D01*
X91038862Y-62179280D01*
X91060370Y-62168446D01*
X91061714Y-62168049D01*
X91079965Y-62181499D01*
D12*
%TO.C,J4*%
X104140000Y-59750000D02*
X102810000Y-59750000D01*
X105410000Y-59750000D02*
X113090000Y-59750000D01*
X105410000Y-57090000D02*
X113090000Y-57090000D01*
X102810000Y-59750000D02*
X102810000Y-58420000D01*
X113090000Y-59750000D02*
X113090000Y-57090000D01*
X105410000Y-59750000D02*
X105410000Y-57090000D01*
%TO.C,U2*%
X88720000Y-68500000D02*
X88720000Y-63500000D01*
X101780000Y-66500000D02*
X101780000Y-60500000D01*
%TO.C,J1*%
X105350000Y-72450000D02*
X105350000Y-71120000D01*
X106680000Y-72450000D02*
X105350000Y-72450000D01*
X107950000Y-72450000D02*
X113090000Y-72450000D01*
X107950000Y-72450000D02*
X107950000Y-69790000D01*
X107950000Y-69790000D02*
X113090000Y-69790000D01*
X113090000Y-72450000D02*
X113090000Y-69790000D01*
%TD*%
%LPC*%
D14*
%TO.C,SW1*%
X111796000Y-65024000D03*
X103596000Y-65024000D03*
%TD*%
D15*
%TO.C,D1*%
X91625000Y-71120000D03*
X89575000Y-71120000D03*
%TD*%
D16*
%TO.C,J4*%
X104140000Y-58420000D03*
D17*
X106680000Y-58420000D03*
X109220000Y-58420000D03*
X111760000Y-58420000D03*
%TD*%
D18*
%TO.C,U2*%
X89535000Y-68250000D03*
X90805000Y-68250000D03*
X92075000Y-68250000D03*
X93345000Y-68250000D03*
X94615000Y-68250000D03*
X95885000Y-68250000D03*
X97155000Y-68250000D03*
X98425000Y-68250000D03*
X99695000Y-68250000D03*
X100965000Y-68250000D03*
X100965000Y-58750000D03*
X99695000Y-58750000D03*
X98425000Y-58750000D03*
X97155000Y-58750000D03*
X95885000Y-58750000D03*
X94615000Y-58750000D03*
X93345000Y-58750000D03*
X92075000Y-58750000D03*
X90805000Y-58750000D03*
X89535000Y-58750000D03*
%TD*%
D16*
%TO.C,J1*%
X106680000Y-71120000D03*
D17*
X109220000Y-71120000D03*
X111760000Y-71120000D03*
%TD*%
D16*
%TO.C,J2*%
X88900000Y-76200000D03*
D17*
X91440000Y-76200000D03*
X93980000Y-76200000D03*
X96520000Y-76200000D03*
X99060000Y-76200000D03*
X101600000Y-76200000D03*
X104140000Y-76200000D03*
X106680000Y-76200000D03*
X109220000Y-76200000D03*
X111760000Y-76200000D03*
%TD*%
D16*
%TO.C,J3*%
X88900000Y-53340000D03*
D17*
X91440000Y-53340000D03*
X93980000Y-53340000D03*
X96520000Y-53340000D03*
X99060000Y-53340000D03*
X101600000Y-53340000D03*
X104140000Y-53340000D03*
X106680000Y-53340000D03*
X109220000Y-53340000D03*
X111760000Y-53340000D03*
%TD*%
M02*
